{
    "appcolor": {
        "colorPrimary": "",
        "colorAccent": "",
        "colorTertiary": ""
    },
    "appconfig": [
        {
            "id": "KEYCLOCK_DECOUPLE",
            "isEnabled": true,
            "order": 1,
            "featureTitle": "NativeLogin",
            "iconName": "icon_media",
            "icon": "base64",
            "subConfig": [
                {
                    "id": "HAS_OPTION_QR_SCAN",
                    "isEnabled": true
                },
                {
                    "id": "HAS_OPTION_TAN_LOGIN",
                    "isEnabled": true
                },
                {
                    "id": "HAS_OPTION_SELF_REGISTRATION",
                    "isEnabled": true
                },
                {
                    "id": "HIDE_MDOC_LOGO",
                    "isEnabled": false
                },
                {
                    "id": "HIDE_REDDOT_LOGO",
                    "isEnabled": false
                },
                {
                  "id": "PASSWORD_LENGTH",
                  "value": 8
                }
            ]
        },
        {
            "id": "DASHBOARD",
            "isEnabled": true,
            "order": 1,
            "featureTitle": "Dashboard/Overview",
            "iconName": "icon_media",
            "icon": "base64",
            "subConfig": [
                {
                    "id": "HISTORY",
                    "isEnabled": true
                },
                {
                    "id": "BOTTOM_NAVIGATION",
                    "isEnabled": true
                }
            ]
        },
        {
            "id": "MYPROFILE",
            "isEnabled": true,
            "order": 2,
            "featureTitle": "My Profile",
            "iconName": "icon_media",
            "icon": "base64",
            "subConfig": [
                {
                    "id": "HISTORY",
                    "isEnabled": true
                },
                {
                    "id": "HAS_EMAIL_IN_EMERGENCY_CONTACT",
                    "isEnabled": true
                },
                {
                    "id": "HAS_PHONE_IN_EMERGENCY_CONTACT",
                    "isEnabled": true
                },
                {
                    "id": "HIDE_PERSONAL_CONTACT_DETAILS",
                    "isEnabled": false
                }
            ]
        },
        {
            "id": "MODULE_COVID19",
            "isEnabled": true,
            "order": 3,
            "featureTitle": "Covid19",
            "iconName": "icon_media",
            "icon": "base64",
            "subConfig": [
                {
                    "id": "WIDGET",
                    "isEnabled": true
                },
                {
                    "id": "CAN_ADD_TEST",
                    "isEnabled": true
                }
            ]
        },
        {
            "id": "MODULE_THERAPY",
            "isEnabled": true,
            "order": 4,
            "featureTitle": "Therapy Plan",
            "iconName": "icon_media",
            "icon": "base64",
            "subConfig": [
                {
                    "id": "HISTORY",
                    "isEnabled": true
                },
                {
                    "id": "BOTTOM_NAVIGATION",
                    "isEnabled": false
                },
                {
                    "id": "WIDGET_API_DISPLAY_LIMIT",
                    "value": 3
                },
                {
                    "id": "WIDGET_TIME_SPAN_DAYS",
                    "value": 1
                },
                {
                    "id": "WIDGET",
                    "isEnabled": true
                },
                {
                    "id": "SHOW_ROOM_NUMBER",
                    "isEnabled": true
                },
                {
                    "id": "SHOW_THERAPIST_NAME_AND_ROOM",
                    "isEnabled": true
                },
                {
                    "id": "SHOW_ALL_SPECIALITIES",
                    "isEnabled": true
                },
                {
                    "id": "HAS_SPECIALIST_ROOM_CUSTOM_TEXT",
                    "isEnabled": false
                },
                {
                    "id": "HAS_INDOOR_NAVIGATION",
                    "isEnabled": true
                },
                {
                    "id": "HAS_VIRTUAL_PRACTICE",
                    "isEnabled": true
                },
                {
                    "id": "HAS_METADATA",
                    "isEnabled": false
                },
                {
                    "id": "APPOINTMENT_EDIT_ICON_ENABLED",
                    "isEnabled": true
                },
                {
                    "id": "HAS_CHANGE_APPOINTMENT",
                    "isEnabled": true
                },
                {
                    "id": "HAS_MULTI_CLINIC_APPOINTMENT",
                    "isEnabled": false
                },
                {
                    "id": "HAS_MULTI_CASE",
                    "isEnabled": true
                },                
                {
                    "id": "HAS_DAY_APPOINTMENTS",
                    "isEnabled": true
                },
                {
                    "id": "HAS_WEEK_APPOINTMENTS",
                    "isEnabled": true
                },
                {
                    "id": "HAS_MONTH_APPOINTMENTS",
                    "isEnabled": false
                },
                {
                    "id": "HAS_YEAR_APPOINTMENTS",
                    "isEnabled": false
                }
                
            ]
        },
        {
            "id": "MODULE_MEALS",
            "isEnabled": true,
            "order": 5,
            "featureTitle": "Meal Plan",
            "iconName": "icon_media",
            "icon": "base64",
            "subConfig": [
                {
                    "id": "RATE_MEAL_TODAY",
                    "isEnabled": true
                },
                {
                    "id": "CAN_USER_CHOOSE_MEAL",
                    "isEnabled": true
                }
            ]
        },
        {
            "id": "MODULE_AIR_POLLEN",
            "isEnabled": true,
            "order": 6,
            "featureTitle": "Air and pollen count",
            "iconName": "icon_media",
            "icon": "base64",
            "subConfig": [
                {
                    "id": "WIDGET",
                    "isEnabled": false
                }
            ]
        },
        {
            "id": "MODULE_QUESTIONNAIRES",
            "isEnabled": true,
            "order": 7,
            "featureTitle": "Questionnaire",
            "iconName": "icon_media",
            "icon": "base64",
            "subConfig": [
                {
                    "id": "HISTORY",
                    "isEnabled": true
                },
                {
                    "id": "BOTTOM_NAVIGATION",
                    "isEnabled": true
                },
                {
                    "id": "WIDGET",
                    "isEnabled": false
                },
                {
                    "id": "HAS_HISTORY",
                    "isEnabled": true
                }
            ]
        },
        {
            "id": "MODULE_MY_CLINIC",
            "isEnabled": true,
            "order": 8,
            "featureTitle": "My Clinic/My Stay",
            "iconName": "icon_media",
            "icon": "base64",
            "subConfig": [
                {
                    "id": "HISTORY",
                    "isEnabled": true
                },
                {
                    "id": "BOTTOM_NAVIGATION",
                    "isEnabled": true
                },
                {
                    "id": "WIDGET",
                    "isEnabled": true
                },
                {
                    "id": "HAS_SPECIALITY_DETAILS",
                    "isEnabled": true
                }
            ]
        },
        {
            "id": "MODULE_CHECKLIST",
            "isEnabled": true,
            "order": 9,
            "featureTitle": "Checklist",
            "iconName": "icon_media",
            "icon": "base64",
            "subConfig": [
            ]
        },
        {
            "id": "MODULE_VITALS",
            "isEnabled": true,
            "order": 10,
            "featureTitle": "My Vitals",
            "iconName": "icon_media",
            "icon": "base64",
            "subConfig": [
                {
                    "id": "WIDGET",
                    "isEnabled": false
                },
                {
                    "id": "HIDE_VITALS_UNIT",
                    "isEnabled": false
                }
            ]
        },
        {
            "id": "MODULE_HELP_SUPPORT",
            "isEnabled": true,
            "order": 11,
            "featureTitle": "Help & Support",
            "iconName": "icon_media",
            "icon": "base64",
            "subConfig": [
                {
                    "id": "HISTORY",
                    "isEnabled": true
                }
            ]
        },
        {
            "id": "MODULE_MEDIA",
            "isEnabled": true,
            "order": 12,
            "featureTitle": "Media",
            "iconName": "icon_media",
            "icon": "base64",
            "subConfig": [
                {
                    "id": "HISTORY",
                    "isEnabled": true
                },
                {
                    "id": "WIDGET",
                    "isEnabled": true
                }
            ]
        },
        {
            "id": "MODULE_PATIENT_JOURNEY",
            "isEnabled": true,
            "order": 13,
            "featureTitle": "Patient Journey/My program",
            "iconName": "icon_media",
            "icon": "base64",
            "subConfig": [
                {
                    "id": "WIDGET",
                    "isEnabled": true
                },
                {
                    "id": "HAS_PATIENT_JOURNEY_HISTORY",
                    "isEnabled": false
                }
            ]
        },
        {
            "id": "MODULE_FILES",
            "isEnabled": true,
            "order": 14,
            "featureTitle": "My files",
            "iconName": "icon_media",
            "icon": "base64",
            "subConfig": [
                {
                    "id": "HISTORY",
                    "isEnabled": true
                }
            ]
        },
        {
            "id": "MODULE_DIARY",
            "isEnabled": true,
            "order": 15,
            "featureTitle": "Diary",
            "iconName": "icon_media",
            "icon": "base64",
            "subConfig": [
                {
                    "id": "HIDE_COACH_SHARE",
                    "isEnabled": false
                }
            ]
        },
        {
            "id": "MODULE_FAMILY_ACCOUNT",
            "isEnabled": true,
            "order": 16,
            "featureTitle": "Family accounts",
            "iconName": "icon_media",
            "icon": "base64",
            "subConfig": [
            ]
        },
        {
            "id": "MODULE_CONSENT",
            "isEnabled": true,
            "order": 17,
            "featureTitle": "Thieme",
            "iconName": "icon_media",
            "icon": "base64",
            "subConfig": [
            ]
        },
        {
            "id": "MODULE_NOTIFICATION",
            "isEnabled": true,
            "order": 18,
            "featureTitle": "Notifications",
            "iconName": "icon_media",
            "icon": "base64",
            "subConfig": [
                {
                    "id": "HISTORY",
                    "isEnabled": true
                },
                {
                    "id": "BOTTOM_NAVIGATION",
                    "isEnabled": false
                },
                {
                    "id": "MESSAGE_SEEN_EXCLUDE_APPOINTMENT_REMINDER",
                    "isEnabled": false
                }
            ]
        },
        {
            "id": "MODULE_EXERCISE",
            "isEnabled": false,
            "order": 19,
            "featureTitle": "Exercises",
            "iconName": "icon_media",
            "icon": "base64",
            "subConfig": [
            ]
        },
        {
            "id": "MODULE_BOOKING",
            "isEnabled": true,
            "order": 20,
            "featureTitle": "Appointment Booking",
            "iconName": "icon_media",
            "icon": "base64",
            "subConfig": [
                {
                    "id": "HISTORY",
                    "isEnabled": true
                },
                {
                    "id": "CAN_FILTER_BOOKABLE_APPOINTMENTS",
                    "isEnabled": true
                },
                {
                    "id": "HAS_COMMENT_FIELDS",
                    "isEnabled": false
                }
            ]
        },
        {
            "id": "MODULE_MENTAL_GOALS",
            "isEnabled": true,
            "order": 21,
            "featureTitle": "My goals",
            "iconName": "icon_media",
            "icon": "base64",
            "subConfig": [
                {
                    "id": "WIDGET",
                    "isEnabled": false
                }
            ]
        },
        {
            "id": "MODULE_MEDICATION_PLAN",
            "isEnabled": true,
            "order": 22,
            "featureTitle": "Medication Plan",
            "iconName": "icon_media",
            "icon": "base64",
            "subConfig": [
                {
                    "id": "WIDGET",
                    "isEnabled": false
                }
            ]
        },
        {
            "id": "MODULE_DEVICES",
            "isEnabled": true,
            "order": 23,
            "featureTitle": "My devices",
            "iconName": "icon_media",
            "icon": "base64",
            "subConfig": []
        },
        {
            "id": "MODULE_ENTERTAINMENT",
            "isEnabled": true,
            "order": 24,
            "featureTitle": "Entertainment",
            "iconName": "icon_media",
            "icon": "base64",
            "subConfig": []
        },
        {
            "id": "MODULE_MESSAGE",
            "isEnabled": true,
            "order": 25,
            "featureTitle": "Messages",
            "iconName": "icon_media",
            "icon": "base64",
            "subConfig": [
                {
                    "id": "HISTORY",
                    "isEnabled": true
                },
                {
                    "id": "WIDGET",
                    "isEnabled": true
                },
                {
                    "id": "CAN_SEND_MESSAGE",
                    "isEnabled": true
                },
                {
                    "id": "CAN_SELECT_RECEIVER",
                    "isEnabled": true
                },
                {
                    "id": "HIDE_SENDER_PRPOFESSIONAL",
                    "isEnabled": false
                },
                {
                    "id": "HIDE_SENDER_LETTER_BOX",
                    "isEnabled": false
                }
            ]
        },
        {
            "id": "MODULE_EXTERNAL_SERVICE",
            "isEnabled": true,
            "order": 26,
            "featureTitle": "External links",
            "iconName": "icon_media",
            "icon": "base64",
            "subConfig": []
        },
        {
            "id": "MODULE_MY_STAY",
            "isEnabled": true,
            "order": 27,
            "featureTitle": "My stay",
            "iconName": "icon_media",
            "icon": "base64",
            "subConfig": [
                {
                    "id": "WIDGET",
                    "isEnabled": true
                },
                {
                    "id": "BOTTOM_NAVIGATION",
                    "isEnabled": false
                },
                {
                    "id": "HIDE_CASE_ID",
                    "isEnabled": false
                },
                {
                    "id": "HIDE_DEPARTMENT",
                    "isEnabled": false
                },
                {
                    "id": "HIDE_PHYSICIAN",
                    "isEnabled": false
                }
            ]
        },
        {
            "id": "MODULE_COVID_HASHTAG",
            "isEnabled": false,
            "order": 28,
            "featureTitle": "My stay",
            "iconName": "icon_media",
            "icon": "base64",
            "subConfig": [
                {
                    "id": "WIDGET",
                    "isEnabled": false
                },
                {
                    "id": "BOTTOM_NAVIGATION",
                    "isEnabled": false
                }
            ]
        },
        {
            "id": "MODULE_NEWS",
            "isEnabled": true,
            "order": 29,
            "featureTitle": "My stay",
            "iconName": "icon_media",
            "icon": "base64",
            "subConfig": [
                {
                    "id": "WIDGET",
                    "isEnabled": true
                }
            ]
        },
        {
            "id": "MODULE_PAIR",
            "isEnabled": true,
            "order": 31,
            "featureTitle": "Pair",
            "iconName": "icon_media",
            "icon": "base64",
            "subConfig": [
                {
                    "id": "IS_PAIR_BUTTON_VISIBLE",
                    "isEnabled": true
                },
                {
                    "id": "ENTER_QR_MANUALLY",
                    "isEnabled": false
                },
                {
                    "id": "MANDATROY_PAIRING",
                    "isEnabled": false
                }
            ]
        },
        {
            "id": "CONFIG_PUSH_NOTIFICATION",
            "isEnabled": true,
            "order": 32,
            "featureTitle": "Pair",
            "iconName": "icon_media",
            "icon": "base64",
            "subConfig": []
        },
        {
            "id": "CONFIG_ROOT_DETECTON_ENABLED",
            "isEnabled": true,
            "order": 33,
            "featureTitle": "Pair",
            "iconName": "icon_media",
            "icon": "base64",
            "subConfig": []
        },
        {
            "id": "CONFIG_PRIVACY_POLICY",
            "isEnabled": true,
            "order": 34,
            "featureTitle": "Pair",
            "iconName": "icon_media",
            "icon": "base64",
            "subConfig": []
        },
        {
            "id": "MODULE_MORE",
            "isEnabled": true,
            "order": 35,
            "featureTitle": "More",
            "iconName": "icon_media",
            "icon": "base64",
            "subConfig": [
                {
                    "id": "BOTTOM_NAVIGATION",
                    "isEnabled": true
                }
            ]
        }
    ]
}
