<svg xmlns="http://www.w3.org/2000/svg" width="16" height="16" fill="none" viewBox="0 0 16 16">
    <path fill="#222" fill-rule="evenodd" d="M7.164 5.816l2.54 1.75c.065.047.105.126.105.211 0 .085-.04.165-.106.211L7.163 9.74c-.07.049-.16.052-.234.008-.074-.044-.12-.128-.12-.22v-3.5c0-.091.047-.174.12-.218.074-.044.163-.041.235.007zm.107.666v2.59l1.878-1.295-1.878-1.295z" clip-rule="evenodd"/>
    <path fill="#222" fill-rule="evenodd" d="M1.241 2h13.517c.064 0 .126.027.171.076.046.049.071.115.071.185v11.478c0 .144-.108.261-.242.261H1.241C1.108 14 1 13.883 1 13.739V2.26C1 2.117 1.108 2 1.241 2zm.242 5.738h1.93V5.391h-1.93v2.347zm0 .522h1.93v2.348h-1.93V8.26zm2.413-5.738v8.347l.001-.001v2.609h8.206V2.522H3.896zm10.62 5.217h-1.93V5.391h1.931V7.74zm.001.521h-1.931v2.348h1.931V8.26zm0-5.738V4.87h-1.931V2.522h1.931zm-11.103 0H1.483V4.87h1.93V2.522zM1.483 13.477V11.13h1.93v2.347h-1.93zm11.103 0h1.931V11.13h-1.931v2.347z" clip-rule="evenodd"/>
</svg>
