<svg xmlns="http://www.w3.org/2000/svg" width="16" height="16" fill="none" viewBox="0 0 16 16">
    <path fill="#222" fill-rule="evenodd" d="M1.028 13.07l.555-1.886c.014-.039.037-.074.066-.103.34-1.023 1.192-1.807 2.26-2.08l.158-.026c.247-.064.51.017.675.207.58.646 1.321.698 2.1.698.78 0 1.52-.052 2.101-.699.165-.19.428-.27.675-.206l.158.039c.8.207 1.488.701 1.93 1.382h1.664c.013 0 .013 0 .027-.013 0-.005.002-.01.004-.016.004-.01.009-.02.009-.036l-.344-1.2c-.304-.944-.885-1.228-2.022-1.512-.044-.01-.085-.033-.118-.065-.093.078-.199.142-.304.194-.04.026-.08.026-.12.026-.1-.002-.19-.056-.237-.142-.032-.061-.038-.133-.015-.198.022-.066.07-.12.134-.15.608-.311 1.044-1.19 1.044-2.094-.003-.803-.669-1.454-1.493-1.46-.159 0-.305.027-.45.066.146.349.224.723.224 1.123 0 2.21-1.36 4.07-2.972 4.07-1.586 0-2.987-1.9-2.987-4.07C3.75 3.305 5.085 2 6.737 2c1.044 0 1.968.53 2.498 1.33.224-.076.461-.116.7-.116.713 0 1.348.375 1.704.93.025-.023.049-.036.073-.048l.006-.004c.198-.103.397-.141.622-.141.739-.014 1.334.568 1.334 1.291 0 .414-.119.8-.304 1.111.608.155 1.15.388 1.4 1.176l.212.749c.04.132.013.275-.073.385-.087.11-.222.173-.363.17h-1.017c.006.026.016.052.026.078.01.026.02.051.026.077l.344 1.215c.052.17.012.355-.106.49-.103.141-.271.223-.449.22h-1.4c.039.09.066.18.092.27l.554 1.9c.054.22.014.452-.131.633-.146.18-.357.284-.581.284H1.742c-.224 0-.45-.104-.582-.284-.148-.182-.197-.423-.132-.646zm7.889-9.236c-.013-.013-.026-.026-.04-.051-.006-.007-.01-.017-.013-.026-.003-.01-.006-.02-.013-.026-.425-.75-1.235-1.215-2.114-1.214-1.097 0-2.022.71-2.34 1.679.475.09.96-.097 1.243-.478.092-.117.251-.142.37-.052.046.03.08.077.092.13.007.006.01.013.014.02.003.005.006.012.013.018.37.736 1.612 1.047 3.026.775-.039-.268-.12-.53-.238-.775zm-3.119.453c.45.607 1.322.93 2.38.93.336 0 .672-.03 1.003-.091-.092 1.808-1.189 3.345-2.444 3.345-1.308 0-2.458-1.666-2.458-3.565 0-.077 0-.142.013-.22.106.027.225.04.33.04.435 0 .853-.157 1.176-.44zm8.642 4.03l-.184-.646c-.159-.53-.49-.685-1.15-.84-.04-.013-.08-.026-.106-.052-.06.05-.127.094-.198.13-.04.025-.08.025-.119.025-.1-.002-.19-.056-.238-.142-.065-.125-.018-.278.106-.349.343-.18.595-.684.595-1.2 0-.44-.357-.789-.807-.789-.145 0-.264.026-.383.09l-.022.008c-.028.01-.052.019-.084.019.066.193.106.4.106.62 0 .736-.25 1.459-.647 1.963.793.194 1.493.452 1.955 1.162h1.176zM1.742 13.482c-.066 0-.128-.03-.172-.078v.001c-.04-.052-.053-.13-.04-.194l.291-.982c.025-.025.043-.056.053-.09l.238-.8c.268-.892.994-1.583 1.916-1.823l.159-.038c.058-.01.118.009.158.052.727.813 1.625.878 2.497.878.873 0 1.771-.065 2.498-.878.039-.04.106-.065.145-.052l.159.038c.924.235 1.653.928 1.916 1.822l.555 1.886c.012.063-.002.129-.04.181-.026.026-.08.077-.171.077H1.741z" clip-rule="evenodd"/>
</svg>
