{
    "VERSION": "1.0.0",
    "PROTOCOL": "https",
    "IP": "rollout7.mdoc.dev",
    "PORT": 443,
    "RELATIVE_PATH": false,
    "PATIENT_CAN_CHOOSE_MEALS": false,
    "WEB_SOCKET": false,
    "COMPANY_NAME": "Portal rollout7",
    "COMPANY_FAVICON": "../../../assets/images/rollout7_favicon/favicon.ico",
    "DEFAULT_VALUES": {
        "CLINIC": "A1",
        "DEPARTMENT": "Innere Medizin PKL"
    },
    "AUTH_SERVER": {
        "url": "https://rollout7-auth.mdoc.dev/auth",
        "realm": "master",
        "clientId": "rollout.mdoc.dev-frontend",
        "passCreatorClientId": "rollout7.mdoc.dev-urlpasscreator",
        "tokenPath": "/realms/master/protocol/openid-connect/token"
    },
    "AUTH_SERVER_DIRECT": {
        "realm": "master",
        "clientId": "rollout.mdoc.dev-frontend-direct",
        "client_secret": "106fbd09-e192-466f-8a97-5e31e52229a5"
    },
    "TINY_MCE_API_KEY": "a0kayprwpklo2hg6dv9k47g4fqb6rrnc7c4qkqcomv737bx2",
    "SENTRY": {
        "ENABLED": false,
        "KEY": "2050d2b0f73b422e8da8c205eceb089d",
        "PROJECT": "1340928"
    },
    "MODULES": {
        "COMMON": {
            "VIRTUAL_PRACTICE": true,
            "VIRTUAL_PRACTICE_ROOM": true,
            "SEND_QUESTIONNAIRE_TO_KIS": true
        },
        "ADMIN": {
            "USERS": true,
            "ADMINS": true,
            "DMP_PATIENTS": false,
            "INSURANCE_PATIENTS": true,
            "MEAL": true,
            "QUESTIONNAIRE": true,
            "CLINICS": true,
            "CONTENT": true,
            "SETTINGS": true,
            "VIRTUAL_PRACTICE": false,
            "MY_FILES": true,
            "KIOSK": true,
            "FAMILY_ACCOUNT": true,
            "MOCKTHERAPIES": true,
            "HIGHLIGHTED_EXPORT": false,
            "RESETLOGIN": true,
            "DEVICE_SECRET": true,
            "MEASUREMENTS": true,
            "DEVICES": true,
            "MEDIA": true,
            "DIARY": true,
            "DMP": true,
            "MENTAL_GOALS": true,
            "MEDICATION_PLAN": true,
            "CODING_TABLES": true,
            "PATIENT_JOURNEY": true,
            "POSTBOX": true,
            "CGM_FORM_UPDATE": false,
            "VALIDATE_CLINIC_HTTPS_URL": true,
            "ADMIN_SETTINGS": {
                "ENABLED": true,
                "GENERAL": true,
                "MAIL": true,
                "NOTFICATIONS": true,
                "CALENDAR": true
            },
            "PATIENT_ANALYTICS": true,
            "HEALTH_STATUS": false,
            "DEFAULT_ACUTE": false,
            "ENABLE_ONLINE_APPOINTMENTS": true,
            "PATIENT_RESET_PASSWORD": false,
            "ENABLE_PRINT": false,
            "ENABLE_CLINICS_SPECIALITY_CONFIG": false,
            "ENABLE_ANALYTICS_GRAPHICAL_VIEW": false,
            "SEND_QR_CODE_BY_EMAIL": false,
            "MEAL_PLAN": true,
            "DIGITAL_SIGNATURE": true,
            "VISITOR_PORTAL": true,
            "PRE_REGISTER_PORTAL": true,
            "ENABLE_BOOK_NOW": true,
            "MAX_DEPUTIES": 2,
            "PATIENT_JOURNEY_CONFIG": {
                "DESCRIPTION_CONTENT_LENGTH": 300,
                "EVENT_DESCRIPTION_CONTENT_LENGTH": 900
            },
            "ENABLE_PATIENT_MOBILE_UPDATE": true,
            "SHARE_TAN_WITH_GUEST": true
        },
        "PATIENT": {
            "DASHBOARD": true,
            "THERAPY": true,
            "MEAL": true,
            "CHECKLIST": true,
            "CLINIC": true,
            "QUESTIONNAIRE": true,
            "MY_VITALS": true,
            "MY_ACCOUNT": true,
            "MY_FILES": true,
            "ADD_APPOINTMENT": true,
            "MEDIA": true,
            "EXERCISES": false,
            "THIEME_QUESTIONNAIRE": true,
            "DIARY": true,
            "FAMILY_ACCOUNT": true,
            "INDOOR_NAVIGATION": true,
            "TERMS_AND_CONDITIONS": true,
            "THERAPIST_NAME": true,
            "BOOK_APPOINTMENT": true,
            "AIR_POLLEN": true,
            "MENTAL_GOALS": true,
            "MY_STAY": true,
            "MY_STAY_SIDEBAR": true,
            "POSTBOX_SIDEBAR": true,
            "HELP": true,
            "SEND_KIS_CHECKED": false,
            "ENABLE_SHARE_SCREEN": true,
            "WEB_LOGIN": true,
            "MEAL_PLAN": true,
            "DIARY_ENTRY_SHOW_TO_PROFESSIONAL": false,
            "ENABLE_SELF_REGISTER_EMERGENCY_CONTACT": true
        }
    },
    "APOINTMENTS": {
        "PATIENT": {
            "WHO_JOINS_APPOINTMENT": false,
            "MULTICLINIC_ENABLED": false
        },
        "ADMIN": {
            "BOOK_NOW_BUFFER": 10
        }
    },
    "INIT_CONVERSATION": true,
    "ENABLE_VIDEO_CHAT": false,
    "SHOW_CHECKIN_CLINIC_DETAILS": false,
    "EMAIL_INVITE": false,
    "VIDEO_CONSULTATION": {
        "MAX_PARTICIPANTS": 20,
        "SHOW_PARTICIPANT_NAME": false
    },
    "THERAPY_PLAN": {
        "CALENDAR_START_TIME_HOUR": 0,
        "CALENDAR_END_TIME_HOUR": 24,
        "CALENDAR_INITIAL_FOCUS_HOUR": 24
    },
    "CALENDAR_WIDGET": {
        "APPOINTMENTS_NUMBER": 3,
        "APPOINTMENTS_DAYS_IN_FUTURE": 365
    },
    "DISPLAY_CLINIC_SPECIALTIES_INSTEAD_OF_DESCRIPTION": false,
    "THIEME_QUESTIONNAIRE": {
        "pdf_download_url": "https://rollout7.mdoc.dev/files/08a67f20708511e79222dfa21a35e46b.pdfx",
        "questionnaire_url": "https://rollout7.mdoc.dev/ecpm/workflow/patient"
    },
    "TRANSLATION_EXTENSION_KEY": "THIEME",
    "FILES": {
        "ALLOWED_FILE_TYPES": [
            "image/jpg",
            "image/jpeg",
            "image/png",
            "image/tif",
            "image/tiff",
            "document/pdf",
            "application/pdf"
        ],
        "MAX_UPLOAD_SIZE": 31457280,
        "MB_CONSTANT": 1024,
        "GB_CONSTANT": 1073741824,
        "ADMIN_MEDIA_UPLOAD": {
            "FILE_TYPES": [
                "application/pdf",
                "video/mp4",
                ".mp4",
                ".pdf"
            ],
            "THUMBNAIL_TYPES": [
                "image/png",
                "image/jpg",
                "image/jpeg",
                "image/gif"
            ]
        }
    },
    "TOKBOX_API_KEY": "46594652",
    "TOKBOX_PROXY": "https://rollout.mdoc.dev/tokbox",
    "POSTBOX": {
        "MESSAGE_ALL": false,
        "RECIPIENTS_PATIENTSIDE": [
            "Letterbox",
            "Professional"
        ],
        "RECIPIENTS_PROFSIDE": [
            "Professional",
            "Letterbox",
            "Patient"
        ],
        "BLOCK_PATIENT_ANSWERS": true
    },
    "SHOW_PHYSICIAN_ON_WIDGET": true,
    "SHOW_CASE_WARD": true,
    "PAYMENT_CONFIG": {
        "ENVIRONMENT": "test",
        "LOCALE": "en_US",
        "CURRENCY": "EUR",
        "COUNTRY_CODE": "DE",
        "CHANNEL": "Web"
    }
}