<svg xmlns="http://www.w3.org/2000/svg" xmlns:xlink="http://www.w3.org/1999/xlink" width="125" height="41" viewBox="0 0 125 41">
    <defs>
        <path id="a" d="M.4.3h12.686v14.718H.4z"/>
        <path id="c" d="M.297.176h14.868V15.46H.297z"/>
        <path id="e" d="M.096.407h12.633V19.41H.096z"/>
        <path id="g" d="M.233.254H15.28v15.205H.233z"/>
    </defs>
    <g fill="none" fill-rule="evenodd">
        <path fill="#434955" d="M62.958 32.93c.569-.548 1.264-.795 2.049-.795.796 0 1.506.246 2.081.808.59.578.828 1.32.828 2.134v3.817h-1.642v-3.92c0-.356-.096-.682-.356-.935-.254-.246-.562-.348-.911-.348-.34 0-.634.107-.878.347a1.07 1.07 0 0 0-.344.772c0 .089.009.178.009.267v3.817h-1.671v-3.817c0-.089.01-.178.009-.267a1.072 1.072 0 0 0-.345-.772 1.195 1.195 0 0 0-.877-.347c-.349 0-.658.102-.912.348-.26.253-.356.58-.356.936v3.919H58v-3.817c0-.814.238-1.556.828-2.134.575-.562 1.286-.808 2.082-.808.785 0 1.48.247 2.048.795zm5.978 5.951h1.414v-1.418h-1.414v1.418zm2.54-1.508v-.696h1.713v.68H73.347l.02-.001H73.447l.019-.001h.08l.02-.001h.098l.004-.001h.076l.017-.001h.092l.01-.001H73.96l.02-.001h.339l.02-.001h.12c.945 0 1.84-.241 2.532-.914.656-.639.937-1.441.937-2.353 0-.905-.264-1.718-.93-2.345-.695-.656-1.605-.879-2.54-.879-.43 0-.828-.019-1.24-.019v1.421h-.14v.301h.14v.3h-.2v.24h.2v1.066h-.178v.21h-.33v.254h-.252v-.444h-.254v.19h-.227v-.21h-.24v-.233h-.245v-.23h.206v-.242h-.206c0-1.389-.019-2.735-.019-4.114h3c1.385 0 2.704.348 3.737 1.309.984.916 1.408 2.088 1.408 3.425 0 1.342-.434 2.51-1.415 3.432-1.03.97-2.34 1.33-3.73 1.33h-3v-1.471h.002zm23.021-8.07V29h1.035v.302h-.348v1.226h-.336v-1.226h-.35zm1.77.727l-.22-.372v.87h-.314V29h.289l.347.612.344-.612H97v1.528h-.327v-.86l-.21.362h-.196zm-24.13 5.383h.253v-.254h-.252v.254zm.007-.532h.253v-.253h-.253v.253zm.858-.227h.253v-.253h-.253v.253zm-.403-1.792h.24v.24h-.24v-.24zm-.42-.782h.3v.3h-.3v-.3zm-.24 1.262h-.24v-.3h.24v.3zm0-.36v-.24h.24v.24h-.24zm.48.54v.241h-.24v-.24h.48v-.24h-.24v.24zm-.24-.24h.24v-.24h-.24v.24zm.656.932h-.253v-.254h.253v.254zm.243-.932v.24h-.3v-.24h.3zm-1.585 1.095h.232v-.19h-.232v.19zm1.115.781h.253v-.253h-.253v.253zm-.044.719h.253v-.254h-.253v.254zm11.882-4.292c1.028 0 1.918.352 2.658 1.07.74.718 1.103 1.599 1.103 2.63 0 1.034-.364 1.917-1.103 2.639A3.651 3.651 0 0 1 84.445 39c-1.028-.005-1.919-.359-2.651-1.084-.73-.721-1.082-1.604-1.082-2.63 0-1.026.353-1.91 1.082-2.63.733-.726 1.624-1.07 2.652-1.07zm8.616 0c.619 0 1.213.134 1.753.442.516.295.928.7 1.235 1.209l.034.057-1.16.911-.045-.064c-.442-.627-1.023-1.03-1.803-1.03-.591 0-1.1.195-1.507.627-.408.434-.594.956-.594 1.549 0 .6.179 1.133.594 1.57.41.428.918.62 1.507.62.774 0 1.356-.402 1.804-1.017l.045-.062 1.16.895-.036.058c-.687 1.106-1.69 1.65-2.987 1.65-1.032 0-1.925-.35-2.66-1.077-.731-.723-1.088-1.608-1.088-2.637 0-1.028.356-1.91 1.089-2.631.736-.723 1.63-1.07 2.659-1.07zm-8.602 1.51c-.587 0-1.088.21-1.493.635-.416.436-.594.97-.594 1.57 0 .594.179 1.122.587 1.556.402.426.902.62 1.486.62.583 0 1.08-.2 1.485-.621.416-.432.6-.957.6-1.555 0-.6-.177-1.134-.593-1.57a1.97 1.97 0 0 0-1.478-.635z"/>
        <text fill="#515151" font-family="Roboto-Regular, Roboto" font-size="10" letter-spacing=".267" transform="translate(0 24)">
            <tspan x="0" y="9">powered by</tspan>
        </text>
        <g>
            <path fill="#0069B3" d="M9.502.442L3.569 8.659h-.051V.442H0v19.002h3.518v-8.346h.051l5.933 8.346h4.134L6.47 9.79 13.636.442z"/>
            <g transform="translate(14.134 4.893)">
                <mask id="b" fill="#fff">
                    <use xlink:href="#a"/>
                </mask>
                <path fill="#0069B3" d="M9.67.3v7.292c0 2.26-.719 4.288-2.876 4.288-2.979 0-2.979-3.158-2.979-4.313V.299H.4v7.447c0 1.181 0 3.492 1.053 5.008.719.976 2.183 2.264 4.776 2.264 2.183 0 3.107-1.135 3.672-1.905h.052v1.438h3.133V.299H9.67z" mask="url(#b)"/>
            </g>
            <path fill="#0069B3" d="M30.275 19.444h3.415v-8.012c0-.847 0-3.286 3.107-3.414V4.705h-.282c-1.772 0-2.414.821-3.056 1.746h-.051V5.192h-3.133v14.252zM48.07 11.406h-4.93v3.083h4.93v4.955h3.081v-4.955h4.93v-3.083h-4.93V6.451H48.07z"/>
            <g transform="translate(77.739 4.451)">
                <mask id="d" fill="#fff">
                    <use xlink:href="#c"/>
                </mask>
                <path fill="#0069B3" d="M3.79 6.647C4.43 4.002 6.562 3.31 7.82 3.31c1.695 0 3.466 1.053 3.852 3.338H3.789zm11.17 2.748a7.885 7.885 0 0 0 .205-1.72c0-3.595-2.85-7.499-7.37-7.499-4.39 0-7.498 3.698-7.498 7.73 0 4.159 3.287 7.553 7.524 7.553 3.339 0 6.06-2.393 6.881-4.96h-3.594c-.643 1.18-1.772 1.823-3.287 1.823-2.44 0-3.775-2.003-3.929-2.927H14.96z" mask="url(#d)"/>
            </g>
            <g transform="translate(94.965 .034)">
                <mask id="f" fill="#fff">
                    <use xlink:href="#e"/>
                </mask>
                <path fill="#0069B3" d="M.096 19.41H3.51v-7.242c0-1.207 0-4.365 2.876-4.365 2.824 0 2.927 2.773 2.927 4.314v7.292h3.415v-8.037c0-1.052 0-3.081-1.13-4.52C10.572 5.543 8.801 4.67 7.21 4.67c-2.131 0-3.262 1.079-3.698 1.49V.407H.096V19.41z" mask="url(#f)"/>
            </g>
            <g transform="translate(109.54 4.451)">
                <mask id="h" fill="#fff">
                    <use xlink:href="#g"/>
                </mask>
                <path fill="#0069B3" d="M12.045 7.828c0 2.645-1.798 4.494-4.16 4.494-2.439 0-4.237-1.977-4.237-4.391 0-2.132 1.438-4.545 4.237-4.545 2.029 0 4.16 1.489 4.16 4.442zM15.28.741h-3.133v1.797h-.052C11.993 2.333 10.273.254 7.371.254 3.417.254.233 3.41.233 7.777c0 4.75 3.262 7.682 6.933 7.682 1.798 0 3.903-.954 4.982-2.239v1.772h3.133V.742z" mask="url(#h)"/>
            </g>
            <path fill="#0069B3" d="M67.508 3.73h2.259c2.747 0 3.39 1.822 3.39 2.875 0 1.001-.488 2.927-3.39 2.927h-2.26V3.73zM63.99 19.443h3.518v-7.267h.05l5.034 7.267h4.263l-5.162-7.01c.95-.232 2.029-.488 3.158-1.566 1.361-1.31 1.824-3.288 1.824-4.546 0-2.183-1.156-3.723-2.235-4.596C73.362.853 72.002.442 69.82.442H63.99v19.002z"/>
        </g>
    </g>
</svg>
