<svg xmlns="http://www.w3.org/2000/svg" width="16" height="16" fill="none" viewBox="0 0 16 16">
    <path fill="#222" fill-rule="evenodd" d="M11 5h3.53c.235 0 .47.118.47.47v5.06c0 .235-.235.47-.47.47H11v3.53c0 .235-.235.47-.47.47H5.47c-.235 0-.47-.235-.47-.47V11H1.47c-.235 0-.47-.235-.47-.47V5.47c0-.235.235-.47.47-.47H5V1.47c0-.235.235-.47.47-.47h5.06c.235 0 .47.235.47.47V5zm-.47 5.059h3.529V5.94h-3.53c-.235 0-.47-.235-.47-.47V1.94H5.94v3.53c0 .235-.235.47-.47.47H1.94v4.118h3.53c.235 0 .47.235.47.47v3.53h4.118v-3.53c0-.235.235-.47.47-.47z" clip-rule="evenodd"/>
</svg>
