{
    "VERSION": "1.0.0",
    "PROTOCOL": "https",
    "IP": "thieme-compliance.mdoc.dev",
    "PORT": 443,
    "RELATIVE_PATH": false,
    "PATIENT_CAN_CHOOSE_MEALS": false,
    "WEB_SOCKET": false,
    "COMPANY_NAME": "Portal thieme-compliance",
    "COMPANY_FAVICON": "../../../assets/images/thieme-compliance_favicon/favicon.ico",
    "DEFAULT_VALUES": {
        "CLINIC": "A1",
        "DEPARTMENT": "Innere Medizin PKL"
    },
    "AUTH_SERVER": {
        "url": "https://auth.mdoc.dev/auth",
        "realm": "master",
        "clientId": "thieme-compliance-frontend",
        "passCreatorClientId": "thieme-compliance.mdoc.dev-urlpasscreator",
        "tokenPath": "/realms/master/protocol/openid-connect/token"
    },
    "AUTH_SERVER_DIRECT": {
        "realm": "master",
        "clientId": "thieme-compliance-frontend",
        "client_secret": "38ee6e28-6a5c-4b36-94c0-0592ceda15fb"
    },
    "TINY_MCE_API_KEY": "a0kayprwpklo2hg6dv9k47g4fqb6rrnc7c4qkqcomv737bx2",
    "SENTRY": {
        "ENABLED": false,
        "KEY": "123",
        "PROJECT": "123"
    },
    "MODULES": {
        "COMMON": {
            "VIRTUAL_PRACTICE": false,
            "VIRTUAL_PRACTICE_ROOM": false,
            "SEND_QUESTIONNAIRE_TO_KIS": true
        },
        "ADMIN": {
            "USERS": true,
            "ADMINS": true,
            "DMP_PATIENTS": false,
            "INSURANCE_PATIENTS": false,
            "MEAL": false,
            "QUESTIONNAIRE": true,
            "CLINICS": true,
            "CONTENT": false,
            "SETTINGS": false,
            "VIRTUAL_PRACTICE": false,
            "MY_FILES": true,
            "KIOSK": false,
            "FAMILY_ACCOUNT": false,
            "MOCKTHERAPIES": false,
            "HIGHLIGHTED_EXPORT": false,
            "RESETLOGIN": true,
            "DEVICE_SECRET": false,
            "MEASUREMENTS": false,
            "DEVICES": false,
            "MENTAL_GOALS": false,
            "MEDICATION_PLAN": false,
            "MEDIA": true,
            "DIARY": false,
            "DMP": false,
            "CODING_TABLES": true,
            "PATIENT_JOURNEY": false,
            "POSTBOX": false,
            "CGM_FORM_UPDATE": false,
            "VALIDATE_CLINIC_HTTPS_URL": true,
            "ADMIN_SETTINGS": {
                "ENABLED": false,
                "GENERAL": false,
                "MAIL": false,
                "NOTFICATIONS": false,
                "CALENDAR": false
            },
            "PATIENT_ANALYTICS": false,
            "HEALTH_STATUS": false,
            "DEFAULT_ACUTE": false,
            "ENABLE_ONLINE_APPOINTMENTS": false,
            "PATIENT_RESET_PASSWORD": false,
            "ENABLE_PRINT": false,
            "ENABLE_ADMIN_TERMS_AND_CONDITIONS": true,
            "SEND_QR_CODE_BY_EMAIL": false,
            "MAX_DEPUTIES": 2,
            "MEDIA_MAX_SIZE": 450,
            "ENABLE_CLINICS_SPECIALITY_CONFIG": false,
            "ENABLE_ANALYTICS_GRAPHICAL_VIEW": false,
            "DIGITAL_SIGNATURE": false,
            "VISITOR_PORTAL": false,
            "PRE_REGISTER_PORTAL": false,
            "SHARE_TAN_WITH_GUEST": true,
            "ENBALE_DEVICE_REG_BY_SMS": true,
            "PATIENT_JOURNEY_CONFIG": {
                "DESCRIPTION_CONTENT_LENGTH": 300,
                "EVENT_DESCRIPTION_CONTENT_LENGTH": 900
            },
            "ENABLE_PATIENT_MOBILE_UPDATE": true,
            "ENABLE_BOOK_NOW": true
        },
        "PATIENT": {
            "DASHBOARD": true,
            "THERAPY": false,
            "MEAL": false,
            "CHECKLIST": false,
            "CLINIC": false,
            "QUESTIONNAIRE": true,
            "MY_VITALS": false,
            "MY_ACCOUNT": true,
            "MY_FILES": true,
            "ADD_APPOINTMENT": false,
            "MEDIA": true,
            "EXERCISES": false,
            "THIEME_QUESTIONNAIRE": false,
            "DIARY": false,
            "FAMILY_ACCOUNT": false,
            "INDOOR_NAVIGATION": false,
            "TERMS_AND_CONDITIONS": false,
            "THERAPIST_NAME": false,
            "BOOK_APPOINTMENT": false,
            "AIR_POLLEN": false,
            "MENTAL_GOALS": false,
            "MY_STAY": false,
            "MY_STAY_SIDEBAR": false,
            "POSTBOX_SIDEBAR": false,
            "HELP": true,
            "SEND_KIS_CHECKED": true,
            "ENABLE_SHARE_SCREEN": false,
            "DIARY_ENTRY_SHOW_TO_PROFESSIONAL": true,
            "ENABLE_SELF_REGISTER_EMERGENCY_CONTACT": true
        }
    },
    "APOINTMENTS": {
        "PATIENT": {
            "WHO_JOINS_APPOINTMENT": false,
            "MULTICLINIC_ENABLED": false
        },
        "ADMIN": {
            "BOOK_NOW_BUFFER": 10
        }
    },
    "INIT_CONVERSATION": true,
    "ENABLE_VIDEO_CHAT": false,
    "SHOW_CHECKIN_CLINIC_DETAILS": false,
    "EMAIL_INVITE": false,
    "SHOW_PHYSICIAN_ON_WIDGET": true,
    "SHOW_CASE_WARD": false,
    "DISPLAY_CLINIC_SPECIALTIES_INSTEAD_OF_DESCRIPTION": false,
    "VIDEO_CONSULTATION": {
        "MAX_PARTICIPANTS": 20,
        "SHOW_PARTICIPANT_NAME": true
    },
    "THIEME_QUESTIONNAIRE": {
        "pdf_download_url": "https://thieme-compliance.mdoc.dev/files/08a67f20708511e79222dfa21a35e46b.pdfx",
        "questionnaire_url": "https://thieme-compliance.mdoc.dev/ecpm/workflow/patient"
    },
    "TRANSLATION_EXTENSION_KEY": "THIEME",
    "FILES": {
        "ALLOWED_FILE_TYPES": [
            "image/jpg",
            "image/jpeg",
            "image/png",
            "image/tif",
            "image/tiff",
            "document/pdf",
            "application/pdf"
        ],
        "MAX_UPLOAD_SIZE": 31457280,
        "MB_CONSTANT": 1024,
        "GB_CONSTANT": 1073741824,
        "ADMIN_MEDIA_UPLOAD": {
            "FILE_TYPES": [
                "application/pdf",
                "video/mp4",
                "application/epub+zip",
                ".epub",
                ".mp4",
                ".pdf"
            ],
            "THUMBNAIL_TYPES": [
                "image/png",
                "image/jpg",
                "image/jpeg",
                "image/gif"
            ]
        }
    },
    "TOKBOX_API_KEY": "46594652",
    "TOKBOX_PROXY": "https://tokbox.mdoc.dev",
    "POSTBOX": {
        "MESSAGE_ALL": false,
        "RECIPIENTS_PATIENTSIDE": [
            "Letterbox",
            "Professional"
        ],
        "RECIPIENTS_PROFSIDE": [
            "Professional",
            "Letterbox",
            "Patient"
        ],
        "BLOCK_PATIENT_ANSWERS": false
    },
    "MY_FILES": {
        "SHARE_WITH_PATIENT": true
    },
    "THERAPY_PLAN": {
        "CALENDAR_START_TIME_HOUR": 0,
        "CALENDAR_END_TIME_HOUR": 24,
        "CALENDAR_INITIAL_FOCUS_HOUR": 24
    },
    "VISITOR_PORTAL": {
        "SUPPORTED_LANGUAGES": [
            "en",
            "de"
        ]
    },
    "CALENDAR_WIDGET": {
        "APPOINTMENTS_NUMBER": 3,
        "APPOINTMENTS_DAYS_IN_FUTURE": 365
    }
}