<svg xmlns="http://www.w3.org/2000/svg" xmlns:xlink="http://www.w3.org/1999/xlink" width="160" height="35" viewBox="0 0 160 35">
    <defs>
        <path id="a" d="M0 34.204h159.69V0H0z"/>
    </defs>
    <g fill="none" fill-rule="evenodd">
        <path fill="#FFF" d="M8.223 12.887c2.33.159 2.35-.79 2.29-2.764V5.286c-.02-1.738-.592-1.837-2.29-1.876v9.477zm-3.475 2.666V.745h3.77c1.265 0 2.785.039 3.91.69 1.343.79 1.56 2.232 1.56 3.653v6.575c-.02 1.48-.474 2.567-1.48 3.2-.909.591-2.015.69-3.08.69h-4.68z"/>
        <mask id="b" fill="#fff">
            <use xlink:href="#a"/>
        </mask>
        <path fill="#FFF" d="M15.782 15.553h3.475V.745h-3.475zM21.13 15.553V.744h7.957v2.962h-4.482v2.725h4.344v2.961h-4.344v3.2h4.72v2.96zM3.316 28.815v1.876c0 .554.237.77.711.75.513-.02.691-.118.672-.533l.02-11.964h3.474v10.305c0 1.047.06 2.192-.454 3.18-.73 1.362-2.034 1.678-3.534 1.678-1.659 0-3.1-.79-3.514-2.448-.179-.672-.159-1.343-.159-1.994v-.85h2.784zM22.538 33.751V18.944h3.475v5.685h2.562v-5.685h3.474V33.75h-3.474v-6.16h-2.562v6.16zM38.95 21.629h-.039l-1.225 6.633h2.232l-.968-6.633zM33.402 33.75l3.238-14.807h4.403l3.219 14.807h-3.515l-.493-2.882h-2.942l-.415 2.882h-3.495zM48.872 25.34l-.04.04.145 8.371H45.68V18.944h3.744l2.767 8.272h.06l-.337-8.272h3.298V33.75h-3.554zM61.185 25.34l-.04.04.145 8.371h-3.298V18.944h3.744l2.767 8.272h.059l-.336-8.272h3.297V33.75H63.97zM70.123 33.751h3.525V18.944h-3.525zM75.298 18.944h9.004v2.96h-2.804v11.847h-3.475V21.905h-2.725zM86.163 33.751V18.944h7.957v2.96h-4.482v2.725h4.344v2.962h-4.344v3.2h4.718v2.96zM100.166 25.242h1.185c1.007 0 1.244-.928 1.244-1.837 0-1.757-.73-1.835-2.429-1.796v3.633zm0 8.51h-3.508V18.943h5.107c2.844 0 4.265 1.144 4.265 4.086 0 1.58-.375 2.705-1.836 3.377v.039c.968.217 1.658.888 1.718 1.915.099 1.185.118 3.732.316 4.68.079.197.178.375.335.513v.197h-3.79a3.105 3.105 0 0 1-.198-.848c-.06-1.304.02-2.528-.079-3.436-.099-.908-.375-1.5-1.185-1.56h-1.145v5.844zM16.814 23.218c0-.909-.19-2.009-1.334-2.009-1.155 0-1.392 1.1-1.392 2.009v6.078c0 .85.286 2.101 1.411 2.101 1.126 0 1.315-1.264 1.315-2.113v-6.066zm3.47 5.875c0 3.338-1.27 4.97-4.785 4.97-3.514 0-4.838-1.638-4.838-4.975v-6.022c0-2.843 1.798-4.522 4.838-4.522 3.041 0 4.785 1.684 4.785 4.528v6.021z" mask="url(#b)"/>
        <path fill="#EC1C24" d="M7.691 12.301c2.33.159 2.35-.789 2.29-2.763V4.7c-.02-1.738-.592-1.836-2.29-1.876v9.477zm-3.475 2.666V.159h3.771c1.264 0 2.784.039 3.91.69 1.342.79 1.56 2.232 1.56 3.654v6.574c-.02 1.481-.475 2.567-1.482 3.2-.907.591-2.013.69-3.08.69H4.217zM15.25 14.967h3.476V.16H15.25zM20.598 14.967V.159h7.958V3.12h-4.482v2.725h4.343v2.962h-4.343v3.198h4.719v2.962zM2.785 28.23v1.876c0 .553.237.77.71.75.514-.02.692-.119.672-.534l.02-11.964h3.475v10.306c0 1.046.059 2.192-.454 3.179-.73 1.362-2.034 1.678-3.535 1.678-1.658 0-3.1-.79-3.514-2.448C-.02 30.402 0 29.73 0 29.08v-.85h2.784zM22.006 33.166V18.358h3.475v5.686h2.562v-5.686h3.475v14.808h-3.475v-6.16h-2.562v6.16zM38.419 21.043h-.04l-1.224 6.634h2.231l-.967-6.634zM32.87 33.166l3.238-14.809h4.404l3.218 14.809h-3.514l-.494-2.883H36.78l-.415 2.883H32.87zM48.34 24.754l-.039.04.144 8.372h-3.297V18.358h3.744l2.766 8.273h.06l-.336-8.273h3.297v14.808h-3.554zM60.653 24.754l-.039.04.144 8.372h-3.297V18.358h3.743l2.767 8.273h.06l-.336-8.273h3.297v14.808h-3.554zM69.591 33.166h3.525V18.357h-3.525zM74.767 18.358h9.003v2.96h-2.803v11.848H77.49V21.319h-2.724zM85.631 33.166V18.358h7.957v2.96h-4.482v2.726h4.344v2.961h-4.344v3.2h4.719v2.96zM99.635 24.656h1.184c1.007 0 1.244-.928 1.244-1.837 0-1.757-.73-1.835-2.428-1.796v3.633zm0 8.51h-3.509V18.357h5.108c2.843 0 4.265 1.146 4.265 4.088 0 1.58-.376 2.705-1.836 3.376v.04c.967.217 1.658.888 1.717 1.914.1 1.186.119 3.732.316 4.68.079.197.178.375.336.513v.198h-3.791a3.102 3.102 0 0 1-.197-.849c-.06-1.304.019-2.528-.08-3.436-.099-.908-.375-1.5-1.184-1.56h-1.145v5.845zM16.282 22.632c0-.909-.189-2.008-1.334-2.008-1.155 0-1.392 1.1-1.392 2.008v6.079c0 .849.286 2.1 1.412 2.1 1.125 0 1.314-1.264 1.314-2.112v-6.067zm3.47 5.876c0 3.336-1.27 4.97-4.784 4.97-3.515 0-4.839-1.639-4.839-4.976V22.48c0-2.843 1.798-4.522 4.839-4.522 3.04 0 4.785 1.685 4.785 4.528v6.022z" mask="url(#b)"/>
        <path fill="#231F20" d="M110.274 31.825h-.234v-.685c.057-.008.13-.016.234-.016.363 0 .492.177.492.355 0 .25-.226.346-.492.346m.436.13v-.017c.217-.064.394-.225.394-.491 0-.194-.064-.331-.185-.42-.12-.088-.322-.153-.628-.153-.242 0-.404.024-.573.049v2.023h.322v-.87h.226c.258 0 .387.096.435.354.041.266.09.452.137.516h.34c-.033-.064-.082-.185-.13-.5-.04-.298-.162-.459-.338-.492" mask="url(#b)"/>
        <path fill="#231F20" d="M110.38 33.371a1.48 1.48 0 0 1-1.478-1.478 1.48 1.48 0 0 1 1.478-1.48 1.48 1.48 0 0 1 1.48 1.48 1.48 1.48 0 0 1-1.48 1.478m0-3.298a1.82 1.82 0 1 0 0 3.64 1.82 1.82 0 0 0 0-3.64" mask="url(#b)"/>
        <path fill="#EC1C24" d="M159.69 17.102C159.69 7.679 152.013 0 142.59 0c-9.483 0-17.162 7.679-17.162 17.102 0 9.482 7.68 17.102 17.161 17.102 9.423 0 17.102-7.62 17.102-17.102" mask="url(#b)"/>
        <path fill="#FFF" d="M147.999 3.141l-5.41 14.02-5.584-13.904 5.584 5.294z" mask="url(#b)"/>
        <path fill="#FFF" d="M156.55 22.628l-13.96-5.526 13.901-5.468-5.293 5.468zM137.005 31.005l5.584-13.903 5.41 13.903-5.469-5.294z" mask="url(#b)"/>
        <path fill="#FFF" d="M128.628 11.634l13.961 5.468-13.902 5.468 5.293-5.468z" mask="url(#b)"/>
    </g>
</svg>
