<svg xmlns="http://www.w3.org/2000/svg" xmlns:xlink="http://www.w3.org/1999/xlink" width="200" height="12" viewBox="0 0 200 12">
    <defs>
        <path id="a" d="M0 .118h8.969v8.319H0z"/>
        <path id="c" d="M.104.357h8.87v10.674H.104z"/>
        <path id="e" d="M.04.119h6.27v8.318H.04z"/>
    </defs>
    <g fill="none" fill-rule="evenodd">
        <g transform="translate(0 2.52)">
            <mask id="b" fill="#fff">
                <use xlink:href="#a"/>
            </mask>
            <path fill="#020303" d="M3.546 3.824l3.067 3.048c.503.503.932.846 1.288 1.028.356.182.712.285 1.068.31v.227H5.012V8.21c.237 0 .407-.04.512-.12.105-.08.156-.168.156-.266a.577.577 0 0 0-.058-.264c-.038-.078-.167-.223-.383-.436l-2.871-2.84v2.68c0 .422.027.7.08.835.04.102.126.19.257.264.176.098.362.147.558.147h.283v.227H0V8.21h.295c.343 0 .593-.1.748-.3.098-.131.147-.446.147-.945V1.59c0-.42-.027-.701-.08-.84A.565.565 0 0 0 .859.492 1.165 1.165 0 0 0 .295.346H0V.118h3.546v.228h-.283a1.2 1.2 0 0 0-.558.14.534.534 0 0 0-.263.295c-.05.131-.074.401-.074.81v2.546c.082-.078.362-.338.84-.78C4.423 2.246 5.157 1.504 5.41 1.132c.11-.164.166-.307.166-.43a.317.317 0 0 0-.129-.248c-.086-.071-.23-.107-.435-.107h-.19V.118h3.055v.228a1.84 1.84 0 0 0-.491.073 2.524 2.524 0 0 0-.54.261 5.253 5.253 0 0 0-.785.622c-.09.083-.506.502-1.246 1.258l-1.27 1.264z" mask="url(#b)"/>
        </g>
        <path fill="#020303" d="M16.066 8.657l.202.043-.712 2.257h-6.44v-.227h.312c.352 0 .604-.114.755-.344.086-.13.129-.433.129-.907V4.111c0-.52-.058-.844-.172-.975-.16-.18-.397-.27-.712-.27h-.312V2.64h3.766v.227c-.442-.004-.751.037-.93.123-.177.085-.3.194-.364.325-.066.131-.098.444-.098.938V9.48c0 .34.032.572.098.7a.44.44 0 0 0 .227.19c.102.04.421.06.957.06h.607c.638 0 1.086-.046 1.343-.14.258-.094.493-.261.706-.5.212-.24.425-.617.638-1.132M20.415 10.73v.227h-3.564v-.226h.295c.343 0 .593-.1.748-.301.098-.13.147-.446.147-.945V4.11c0-.42-.026-.699-.08-.834a.555.555 0 0 0-.251-.264 1.164 1.164 0 0 0-.564-.147h-.295V2.64h3.564v.227h-.3c-.34 0-.587.1-.743.3-.102.131-.153.447-.153.945v5.374c0 .421.027.7.08.834.04.102.127.19.258.264.175.098.362.148.557.148h.301zM20.557 2.639h2.257l5.085 6.239V4.08c0-.512-.058-.83-.172-.957-.15-.172-.39-.258-.717-.258h-.288V2.64h2.895v.227h-.295c-.352 0-.6.106-.748.32-.09.13-.134.428-.134.895v7.011h-.222l-5.484-6.699v5.123c0 .51.055.83.165.957.156.171.395.257.718.257h.295v.227h-2.896v-.227h.289c.356 0 .607-.106.754-.318.09-.131.135-.43.135-.896V3.73c-.241-.283-.425-.468-.549-.558a2.026 2.026 0 0 0-.549-.252 1.953 1.953 0 0 0-.54-.055V2.64zM33.672 10.73v.227h-3.565v-.226h.295c.343 0 .593-.1.748-.301.098-.13.148-.446.148-.945V4.11c0-.42-.027-.699-.08-.834a.553.553 0 0 0-.252-.264 1.166 1.166 0 0 0-.564-.147h-.295V2.64h3.565v.227h-.3c-.34 0-.588.1-.743.3-.103.131-.153.447-.153.945v5.374c0 .421.026.7.08.834.04.102.126.19.257.264.176.098.362.148.558.148h.301zM37.733 6.344L40.8 9.393c.503.503.932.846 1.288 1.027.356.183.711.286 1.068.31v.227h-3.957v-.226c.237 0 .407-.04.512-.12.104-.08.157-.169.157-.267a.583.583 0 0 0-.059-.264c-.039-.077-.167-.223-.384-.436l-2.87-2.84v2.681c0 .421.027.7.08.834a.55.55 0 0 0 .257.264c.176.098.362.148.558.148h.283v.226h-3.546v-.226h.294c.344 0 .593-.1.749-.301.098-.13.147-.446.147-.945V4.112c0-.422-.026-.702-.08-.841a.564.564 0 0 0-.251-.258 1.166 1.166 0 0 0-.565-.147h-.294v-.227h3.546v.227h-.283c-.192 0-.378.047-.558.141a.534.534 0 0 0-.264.294c-.049.131-.073.401-.073.81v2.546c.082-.078.362-.337.84-.779 1.215-1.112 1.949-1.855 2.203-2.227.11-.163.165-.306.165-.43a.316.316 0 0 0-.129-.248c-.086-.071-.231-.107-.435-.107h-.19v-.227h3.054v.227c-.18.004-.343.029-.49.073a2.535 2.535 0 0 0-.54.261 5.277 5.277 0 0 0-.785.623c-.09.082-.506.501-1.246 1.257l-1.27 1.264zM49.045 2.866v-.227h2.944v.227h-.313a.846.846 0 0 0-.755.411c-.085.127-.128.421-.128.883v3.374c0 .835-.083 1.482-.249 1.942-.165.46-.49.854-.975 1.184-.485.33-1.144.493-1.978.493-.909 0-1.597-.157-2.068-.472a2.56 2.56 0 0 1-1-1.27c-.13-.363-.196-1.046-.196-2.049v-3.25c0-.512-.07-.847-.211-1.007-.142-.16-.37-.239-.684-.239h-.313v-.227h3.595v.227h-.32c-.343 0-.588.109-.736.325-.102.147-.153.454-.153.92v3.625c0 .324.03.694.09 1.111.058.417.166.743.321.975.155.233.38.426.672.577.292.151.65.227 1.076.227.544 0 1.03-.118 1.46-.356.43-.237.723-.54.88-.911.158-.37.237-.997.237-1.88V4.112c0-.52-.058-.845-.172-.976-.16-.18-.397-.27-.712-.27h-.312zM57.265 10.957l-3.215-7v5.558c0 .512.055.831.166.958.15.171.39.257.718.257h.294v.227h-2.895v-.227h.294c.351 0 .601-.106.749-.319.09-.13.135-.429.135-.896V4.08c0-.367-.042-.633-.123-.797a.687.687 0 0 0-.316-.298c-.154-.08-.4-.119-.74-.119v-.227h2.356l3.018 6.51 2.97-6.51h2.354v.227h-.288c-.355 0-.607.107-.754.319-.09.13-.135.43-.135.895v5.435c0 .512.058.831.172.958.151.171.39.257.717.257h.288v.227h-3.533v-.227h.295c.355 0 .605-.106.748-.319.09-.13.135-.429.135-.896V3.958l-3.208 7h-.202zM72.196 2.449v2.877h-.228c-.073-.552-.205-.991-.395-1.319a2.055 2.055 0 0 0-.813-.779 2.249 2.249 0 0 0-1.092-.289c-.425 0-.777.13-1.055.39-.278.26-.417.555-.417.887 0 .253.088.484.264.693.253.307.856.715 1.81 1.226.777.418 1.307.738 1.592.96.283.224.503.486.656.79.153.302.23.618.23.95 0 .63-.245 1.172-.733 1.629-.489.456-1.117.683-1.887.683-.241 0-.468-.018-.68-.055-.127-.02-.39-.095-.789-.224-.398-.129-.651-.193-.757-.193a.322.322 0 0 0-.243.092c-.059.062-.103.188-.131.38H67.3V8.295h.228c.106.597.25 1.044.429 1.34.18.297.455.543.825.74.37.196.776.294 1.218.294.51 0 .914-.135 1.211-.405.296-.27.445-.589.445-.957 0-.204-.056-.41-.169-.62a1.838 1.838 0 0 0-.524-.582c-.16-.123-.595-.384-1.307-.782-.711-.399-1.217-.717-1.518-.954-.3-.237-.529-.5-.684-.786a1.948 1.948 0 0 1-.233-.944c0-.598.229-1.111.687-1.543.458-.431 1.04-.647 1.748-.647.442 0 .91.109 1.405.325.229.102.39.153.485.153a.367.367 0 0 0 .26-.095c.068-.063.122-.191.162-.383h.228zM80.986 2.449l.19 2.827h-.19c-.253-.846-.615-1.455-1.086-1.827-.47-.372-1.035-.559-1.693-.559-.552 0-1.05.14-1.496.421-.446.28-.797.727-1.052 1.34-.256.614-.384 1.377-.384 2.288 0 .753.12 1.405.362 1.957a2.71 2.71 0 0 0 1.089 1.27c.484.294 1.038.442 1.659.442.54 0 1.016-.116 1.43-.347.413-.23.867-.69 1.361-1.377l.19.122c-.416.741-.903 1.283-1.46 1.626-.556.344-1.216.515-1.981.515-1.378 0-2.445-.51-3.202-1.533-.565-.76-.847-1.656-.847-2.687 0-.83.187-1.592.559-2.288a4.04 4.04 0 0 1 1.536-1.617 4.154 4.154 0 0 1 2.139-.573c.6 0 1.193.147 1.778.441.172.09.294.136.369.136.11 0 .206-.04.288-.117a.957.957 0 0 0 .227-.46h.214zM84.385 6.498h3.865v-2.38c0-.426-.027-.706-.08-.84a.551.551 0 0 0-.258-.265 1.13 1.13 0 0 0-.558-.147h-.295V2.64h3.558v.227h-.294c-.196 0-.382.047-.558.141a.513.513 0 0 0-.267.298c-.047.132-.07.404-.07.812v5.368c0 .42.025.7.08.834.04.103.123.19.25.264.18.098.369.147.565.147h.294v.227h-3.558v-.227h.295c.34 0 .587-.1.742-.3.102-.13.154-.446.154-.945V6.952h-3.865v2.533c0 .42.026.7.08.834.04.103.126.19.257.264.176.098.362.147.558.147h.301v.227h-3.564v-.227h.294c.344 0 .593-.1.749-.3.098-.13.147-.446.147-.945V4.117c0-.425-.027-.705-.08-.84a.557.557 0 0 0-.251-.264 1.166 1.166 0 0 0-.565-.147h-.294V2.64h3.564v.227h-.3c-.197 0-.383.047-.559.141a.532.532 0 0 0-.264.298c-.049.132-.073.404-.073.812v2.38zM98.076 8.657l.203.043-.711 2.257h-6.441v-.227h.312c.352 0 .604-.114.754-.344.087-.13.13-.433.13-.907V4.111c0-.52-.058-.844-.172-.975-.16-.18-.397-.27-.712-.27h-.312V2.64h3.766v.227c-.442-.004-.751.037-.93.123-.177.085-.3.194-.364.325-.066.131-.099.444-.099.938V9.48c0 .34.033.572.099.7.049.085.124.148.227.19.102.04.421.06.957.06h.607c.638 0 1.085-.046 1.343-.14.258-.094.493-.261.706-.5.212-.24.425-.617.637-1.132M103.027 2.897c-.745 0-1.341.276-1.79.828-.561.687-.841 1.693-.841 3.018 0 1.358.29 2.402.87 3.135.446.556 1.035.834 1.767.834.781 0 1.426-.305 1.936-.914.508-.61.764-1.57.764-2.883 0-1.423-.28-2.485-.84-3.184-.451-.556-1.073-.834-1.866-.834m.117-.449c1.08 0 2.015.411 2.806 1.23.791.82 1.187 1.844 1.187 3.071 0 1.264-.399 2.313-1.196 3.147-.798.835-1.763 1.251-2.896 1.251-1.145 0-2.107-.406-2.886-1.22-.779-.814-1.168-1.867-1.168-3.16 0-1.32.449-2.398 1.35-3.232.78-.724 1.715-1.087 2.803-1.087M113.382 2.449v2.877h-.227c-.074-.552-.205-.991-.396-1.319a2.058 2.058 0 0 0-.812-.779 2.25 2.25 0 0 0-1.093-.289c-.425 0-.777.13-1.054.39-.278.26-.418.555-.418.887 0 .253.088.484.264.693.254.307.857.715 1.81 1.226.777.418 1.308.738 1.592.96.284.224.503.486.656.79.154.302.23.618.23.95 0 .63-.244 1.172-.733 1.629-.489.456-1.117.683-1.887.683a3.93 3.93 0 0 1-.68-.055c-.127-.02-.39-.095-.788-.224-.4-.129-.652-.193-.758-.193a.321.321 0 0 0-.242.092c-.06.062-.104.188-.132.38h-.227V8.295h.227c.106.597.25 1.044.43 1.34.179.297.454.543.825.74.37.196.775.294 1.217.294.511 0 .915-.135 1.211-.405.297-.27.445-.589.445-.957 0-.204-.056-.41-.168-.62a1.844 1.844 0 0 0-.525-.582c-.16-.123-.595-.384-1.307-.782-.71-.399-1.217-.717-1.518-.954-.3-.237-.529-.5-.684-.786a1.948 1.948 0 0 1-.233-.944c0-.598.23-1.111.688-1.543.457-.431 1.04-.647 1.747-.647.442 0 .91.109 1.406.325.228.102.39.153.484.153a.366.366 0 0 0 .26-.095c.068-.063.122-.191.163-.383h.227zM120.37 2.449v2.877h-.228c-.074-.552-.205-.991-.396-1.319a2.055 2.055 0 0 0-.812-.779 2.249 2.249 0 0 0-1.092-.289c-.425 0-.778.13-1.056.39s-.417.555-.417.887c0 .253.088.484.264.693.254.307.857.715 1.81 1.226.777.418 1.307.738 1.592.96.284.224.503.486.656.79.153.302.23.618.23.95 0 .63-.244 1.172-.733 1.629-.488.456-1.117.683-1.886.683-.242 0-.469-.018-.681-.055-.127-.02-.39-.095-.789-.224-.398-.129-.65-.193-.757-.193a.322.322 0 0 0-.243.092c-.059.062-.103.188-.13.38h-.228V8.295h.227c.106.597.25 1.044.43 1.34.18.297.454.543.824.74.37.196.776.294 1.218.294.51 0 .915-.135 1.212-.405.295-.27.444-.589.444-.957 0-.204-.056-.41-.169-.62a1.838 1.838 0 0 0-.524-.582c-.16-.123-.595-.384-1.306-.782-.712-.399-1.218-.717-1.519-.954-.3-.237-.528-.5-.684-.786a1.948 1.948 0 0 1-.233-.944c0-.598.229-1.111.687-1.543.458-.431 1.04-.647 1.749-.647.44 0 .91.109 1.404.325.23.102.39.153.485.153a.367.367 0 0 0 .26-.095c.068-.063.122-.191.163-.383h.227zM131.939 8.657l.202.043-.712 2.257h-6.44v-.227h.312c.352 0 .603-.114.755-.344.085-.13.129-.433.129-.907V4.111c0-.52-.058-.844-.172-.975-.16-.18-.397-.27-.712-.27h-.313V2.64h3.767v.227c-.442-.004-.751.037-.93.123-.177.085-.299.194-.365.325-.065.131-.098.444-.098.938V9.48c0 .34.033.572.098.7.05.085.125.148.228.19.102.04.42.06.957.06h.606c.639 0 1.086-.046 1.344-.14.258-.094.493-.261.706-.5.212-.24.425-.617.638-1.132"/>
        <g transform="translate(132.374 .122)">
            <mask id="d" fill="#fff">
                <use xlink:href="#c"/>
            </mask>
            <path fill="#020303" d="M5.926.357c.184 0 .34.066.469.197a.65.65 0 0 1 .194.472c0 .184-.065.34-.194.47a.637.637 0 0 1-.47.192.648.648 0 0 1-.472-.193.634.634 0 0 1-.196-.469c0-.184.066-.341.196-.472a.645.645 0 0 1 .473-.197zm-2.166 0c.188 0 .347.066.476.197a.65.65 0 0 1 .193.472c0 .184-.065.34-.196.47a.643.643 0 0 1-.467.192.648.648 0 0 1-.472-.193.632.632 0 0 1-.196-.469c0-.184.064-.341.193-.472a.633.633 0 0 1 .47-.197zm2.27 2.387v-.227h2.944v.227h-.312a.845.845 0 0 0-.755.411c-.086.127-.129.421-.129.883v3.374c0 .834-.082 1.482-.248 1.942-.166.46-.49.854-.975 1.184-.485.329-1.145.493-1.978.493-.909 0-1.598-.157-2.068-.472a2.561 2.561 0 0 1-1-1.27c-.13-.364-.196-1.047-.196-2.049V3.99c0-.511-.071-.847-.212-1.006-.141-.16-.369-.24-.683-.24H.104v-.226H3.7v.227H3.38c-.343 0-.589.108-.736.325-.102.147-.154.454-.154.92v3.625c0 .324.03.693.09 1.11.059.418.166.743.321.976.156.233.38.425.672.577.292.151.651.227 1.077.227.544 0 1.03-.119 1.46-.356.429-.237.723-.54.88-.911.157-.37.237-.997.237-1.88V3.989c0-.52-.058-.844-.173-.976-.159-.18-.396-.27-.71-.27H6.03z" mask="url(#d)"/>
        </g>
        <path fill="#020303" d="M148.753 2.639l.092 1.95h-.233c-.045-.342-.107-.588-.184-.735a1.228 1.228 0 0 0-.506-.525c-.211-.112-.488-.168-.831-.168h-1.172v6.355c0 .51.055.83.166.957.155.171.394.257.718.257h.288v.227h-3.528v-.227h.295c.351 0 .6-.106.748-.318.09-.131.135-.43.135-.896V3.16h-1c-.389 0-.664.028-.828.086a1.139 1.139 0 0 0-.546.447c-.151.221-.241.52-.27.895h-.233l.098-1.95h6.79zM156.869 2.449l.214 2.626h-.214c-.217-.655-.497-1.148-.84-1.479-.495-.478-1.131-.718-1.908-.718-1.06 0-1.865.42-2.418 1.258-.461.707-.693 1.55-.693 2.527 0 .793.154 1.518.46 2.172.308.654.71 1.134 1.206 1.438.497.305 1.007.458 1.53.458.307 0 .604-.04.89-.117.286-.078.563-.193.828-.344V7.865c0-.416-.031-.69-.095-.818a.643.643 0 0 0-.294-.295c-.133-.067-.367-.1-.703-.1v-.234h3.22v.233h-.153c-.319 0-.538.106-.656.319-.082.151-.123.45-.123.895v2.547c-.47.253-.934.44-1.392.558a6.078 6.078 0 0 1-1.527.177c-1.608 0-2.829-.515-3.663-1.545a4.128 4.128 0 0 1-.938-2.675c0-.732.176-1.433.527-2.104.417-.798.99-1.41 1.718-1.84.609-.356 1.329-.534 2.159-.534.303 0 .577.025.825.074.248.048.598.157 1.052.325.229.086.382.129.46.129.078 0 .145-.037.2-.108.055-.071.089-.211.1-.42h.228zM160.856 3.093v3.288h1.828c.475 0 .792-.072.95-.215.213-.187.332-.519.357-.993h.227v2.895h-.227c-.057-.405-.114-.665-.171-.78a.777.777 0 0 0-.363-.336c-.168-.082-.425-.123-.773-.123h-1.828V9.57c0 .368.016.592.05.671.032.08.09.144.171.19.082.048.237.071.466.071h1.411c.47 0 .812-.032 1.025-.098a1.53 1.53 0 0 0 .613-.387c.253-.253.513-.635.78-1.146h.245l-.718 2.085h-6.41v-.226h.294c.196 0 .382-.048.558-.142a.514.514 0 0 0 .267-.294c.047-.131.07-.399.07-.804V4.086c0-.527-.052-.852-.16-.975-.146-.163-.392-.245-.735-.245h-.294v-.227h6.41l.092 1.822h-.24c-.085-.438-.18-.739-.284-.902a.983.983 0 0 0-.464-.374c-.163-.062-.452-.092-.865-.092h-2.282zM165.74 2.639h2.256l5.086 6.239V4.08c0-.512-.057-.83-.171-.957-.152-.172-.39-.258-.718-.258h-.289V2.64h2.896v.227h-.295c-.351 0-.601.106-.748.32-.09.13-.135.428-.135.895v7.011h-.22l-5.485-6.699v5.123c0 .51.055.83.166.957.155.171.394.257.717.257h.295v.227h-2.896v-.227h.288c.356 0 .608-.106.755-.318.09-.131.135-.43.135-.896V3.73c-.242-.283-.424-.468-.549-.558a2.04 2.04 0 0 0-.549-.252 1.955 1.955 0 0 0-.54-.055V2.64zM177.56 6.498h3.865v-2.38c0-.426-.026-.706-.08-.84a.554.554 0 0 0-.258-.265 1.13 1.13 0 0 0-.558-.147h-.294V2.64h3.558v.227h-.295c-.196 0-.382.047-.558.141a.514.514 0 0 0-.267.298c-.047.132-.07.404-.07.812v5.368c0 .42.026.7.08.834.04.103.124.19.25.264.18.098.37.147.565.147h.295v.227h-3.558v-.227h.294c.34 0 .587-.1.742-.3.103-.13.154-.446.154-.945V6.952h-3.865v2.533c0 .42.027.7.08.834a.55.55 0 0 0 .258.264c.175.098.361.147.558.147h.3v.227h-3.564v-.227h.295c.344 0 .593-.1.748-.3.098-.13.147-.446.147-.945V4.117c0-.425-.026-.705-.08-.84a.557.557 0 0 0-.25-.264 1.168 1.168 0 0 0-.565-.147h-.295V2.64h3.564v.227h-.3c-.197 0-.383.047-.558.141a.53.53 0 0 0-.264.298c-.049.132-.074.404-.074.812v2.38zM188.529 2.897c-.745 0-1.342.276-1.792.828-.56.687-.84 1.693-.84 3.018 0 1.358.29 2.402.87 3.135.447.556 1.035.834 1.768.834.781 0 1.426-.305 1.935-.914.51-.61.764-1.57.764-2.883 0-1.423-.28-2.485-.84-3.184-.45-.556-1.072-.834-1.865-.834m.116-.449c1.08 0 2.015.411 2.807 1.23.791.82 1.186 1.844 1.186 3.071 0 1.264-.398 2.313-1.196 3.147-.797.835-1.763 1.251-2.895 1.251-1.145 0-2.107-.406-2.886-1.22-.78-.814-1.169-1.867-1.169-3.16 0-1.32.45-2.398 1.35-3.232.78-.724 1.715-1.087 2.803-1.087"/>
        <g transform="translate(193.285 2.52)">
            <mask id="f" fill="#fff">
                <use xlink:href="#e"/>
            </mask>
            <path fill="#020303" d="M2.408.573v3.269h1.515c.348 0 .602-.076.764-.23.161-.153.269-.456.322-.911h.227v2.816h-.227c-.004-.323-.046-.56-.126-.712a.797.797 0 0 0-.33-.34c-.142-.076-.352-.113-.63-.113H2.408v2.613c0 .42.027.699.08.834.04.102.127.19.257.263.18.099.368.148.565.148h.3v.227H.04V8.21h.295c.343 0 .593-.1.748-.3.098-.131.147-.447.147-.945V1.59c0-.421-.027-.7-.08-.834A.556.556 0 0 0 .9.493 1.143 1.143 0 0 0 .335.345H.04V.12h6.19l.08 1.827h-.215c-.107-.388-.23-.673-.371-.855a1.22 1.22 0 0 0-.522-.395c-.206-.082-.526-.123-.96-.123H2.408z" mask="url(#f)"/>
        </g>
    </g>
</svg>
