{
    "properties": {
        "environment": "windach",
        "userOTPDeviceLimit": 5,
        "logLevel": "DEBUG",
        "frontendUrl": "/../../../../../frontend",
        "cacheUrl": "/var/www/cache",
        "imagesUrl": "../../../../../frontend",
        "uploadRootFolder": "/var/www/uploads",
        "tmpFolder": "/tmp",
        "project": "mdoc",
        "mockTherapies": true,
        "belegung": false,
        "hideCompletedQuestionnaire": true,
        "publicApiUrl": "https://rollout9.mdoc.dev",
        "publicRehabPortalUrl": "https://rollout9.mdoc.dev:999",
        "externalServicesUrl": "http://localhost:8000",
        "reportPaths": {
            "root": "/reports",
            "reservations": "/reservations"
        },
        "uploadServicesPaths": {
            "reservations": {
                "root": "/reservations",
                "pdfTemplateFolder": "/insurance_pdf_templates",
                "casesFolder": "/cases",
                "pdfFormFolder": "/pdf",
                "imageFolder": "/images",
                "documentFolder": "/documents",
                "reportTemlateFolder": "/report_pdf_templates"
            }
        },
        "maxImageSize": 250000,
        "oAuth2Details": {
            "url": "https://rollout9-auth.mdoc.dev",
            "path": "/auth/realms/master/protocol/openid-connect/token",
            "user": "rollout_appadmin_n7xvw5jau",
            "password": "zB1E5Ke2EDiiFbfxdVFM",
            "secret": "ef612813-8a97-4e90-b862-c0eadcf378b2",
            "clientId": "rollout.mdoc.dev-backend"
        },
        "appleCertificate": {
            "password": "maKe1234",
            "keyPath": "../../../../../data/mdoc/uat/key.pem",
            "cerPath": "../../../../../data/mdoc/uat/cert.pem",
            "production": false
        },
        "cgmApi": [],
        "w2eApi": [
            {
                "endpoint": "https://developer.w2e.fi",
                "clientId": "J9yEFLUmCtOEldCK",
                "clientSecret": "oTVb9M22Yi17jkWT8iKl0ZmkQ74NZDyt",
                "auth": {
                    "url": "/oauth/request",
                    "method": "POST",
                    "headers": {}
                },
                "token": {
                    "url": "/oauth/access_token",
                    "method": "POST",
                    "headers": {}
                },
                "fitbitDetails": {
                    "url": "/api/users/:userId/data/raw/fitbit/activity/:date",
                    "method": "GET",
                    "headers": {}
                }
            }
        ],
        "googleApiKey": {
            "value": "AIzaSyBmYTXVznLtCiOEU80sz4CXlScDkodE6-I"
        },
        "externalAccesses": [
            {
                "service": "CGM",
                "token": "asdfafsgfd5g4dsf5gg6hfgj4ghj54dafas"
            }
        ],
        "cronJobsSettings": {
            "cgmSynchronisation": "0 */1 * * *",
            "questionnaireExportInterval": "0 0 * * *",
            "deleteObsoleteCashedFilesInterval": "0 0 * * *"
        },
        "mealPlanRatingRule": true,
        "questionnairesScoringEnabled": false,
        "sentryConfig": {
            "dns": "https://3b7280cb590c4d89ae3afaf76119b33c@sentry.io/1341081"
        }
    },
    "rest": {
        "balancingEnvironment": {
            "name": "Rest",
            "protocol": "https",
            "host": "rollout9.mdoc.dev",
            "port": 2888
        },
        "deploymentEnvironments": [
            {
                "name": "Rest-0",
                "protocol": "http",
                "host": "localhost",
                "port": 2888
            }
        ]
    },
    "auth": {
        "balancingEnvironment": {
            "name": "Auth",
            "protocol": "http",
            "host": "localhost",
            "port": 2889
        },
        "deploymentEnvironments": [
            {
                "name": "Auth",
                "protocol": "http",
                "port": 2889,
                "database": {
                    "url": "mongodb://mdocrolloutusr:CX2gpr6lW8mm3z6GeuzN@localhost:27017/mdocrollout_base"
                }
            }
        ]
    },
    "user": {
        "balancingEnvironment": {
            "name": "User",
            "protocol": "http",
            "host": "localhost",
            "port": 2890
        },
        "deploymentEnvironments": [
            {
                "name": "User",
                "protocol": "http",
                "port": 2890,
                "database": {
                    "url": "mongodb://mdocrolloutusr:CX2gpr6lW8mm3z6GeuzN@localhost:27017/mdocrollout_base"
                }
            }
        ]
    },
    "message": {
        "balancingEnvironment": {
            "name": "Message",
            "protocol": "http",
            "host": "localhost",
            "port": 2891
        },
        "deploymentEnvironments": [
            {
                "name": "Message",
                "protocol": "http",
                "port": 2891,
                "database": {
                    "url": "mongodb://mdocrolloutusr:CX2gpr6lW8mm3z6GeuzN@localhost:27017/mdocrollout_base"
                }
            }
        ]
    },
    "cgm": {
        "balancingEnvironment": {
            "name": "Cgm",
            "protocol": "http",
            "host": "localhost",
            "port": 2892
        },
        "deploymentEnvironments": [
            {
                "name": "Cgm",
                "protocol": "http",
                "port": 2892,
                "database": {
                    "url": "mongodb://mdocrolloutusr:CX2gpr6lW8mm3z6GeuzN@localhost:27017/mdocrollout_base"
                }
            }
        ]
    },
    "common": {
        "balancingEnvironment": {
            "name": "Common",
            "protocol": "http",
            "host": "localhost",
            "port": 2893
        },
        "deploymentEnvironments": [
            {
                "name": "Common",
                "protocol": "http",
                "port": 2893
            }
        ]
    },
    "therapy": {
        "balancingEnvironment": {
            "name": "Therapy",
            "protocol": "http",
            "host": "localhost",
            "port": 2894
        },
        "deploymentEnvironments": [
            {
                "name": "Therapy",
                "protocol": "http",
                "port": 2894,
                "database": {
                    "url": "mongodb://mdocrolloutusr:CX2gpr6lW8mm3z6GeuzN@localhost:27017/mdocrollout_base"
                }
            }
        ]
    },
    "meal": {
        "balancingEnvironment": {
            "name": "Meal",
            "protocol": "http",
            "host": "localhost",
            "port": 2895
        },
        "deploymentEnvironments": [
            {
                "name": "Meal",
                "protocol": "http",
                "port": 2895,
                "database": {
                    "url": "mongodb://mdocrolloutusr:CX2gpr6lW8mm3z6GeuzN@localhost:27017/mdocrollout_base"
                }
            }
        ]
    },
    "poll": {
        "balancingEnvironment": {
            "name": "Poll",
            "protocol": "http",
            "host": "localhost",
            "port": 2896
        },
        "deploymentEnvironments": [
            {
                "name": "Poll",
                "protocol": "http",
                "port": 2896,
                "database": {
                    "url": "mongodb://mdocrolloutusr:CX2gpr6lW8mm3z6GeuzN@localhost:27017/mdocrollout_base"
                }
            }
        ]
    },
    "questionnaire": {
        "balancingEnvironment": {
            "name": "Questionnaire",
            "protocol": "http",
            "host": "localhost",
            "port": 2897
        },
        "deploymentEnvironments": [
            {
                "name": "Questionnaire",
                "protocol": "http",
                "port": 2897,
                "database": {
                    "url": "mongodb://mdocrolloutusr:CX2gpr6lW8mm3z6GeuzN@localhost:27017/mdocrollout_base"
                }
            }
        ]
    },
    "cgmChanges": {
        "balancingEnvironment": {
            "name": "Cgm changes",
            "protocol": "http",
            "host": "localhost",
            "port": 2898
        },
        "deploymentEnvironments": [
            {
                "name": "Cgm changes",
                "protocol": "http",
                "port": 2898
            }
        ]
    },
    "clinic": {
        "balancingEnvironment": {
            "name": "Clinic",
            "protocol": "http",
            "host": "localhost",
            "port": 2899
        },
        "deploymentEnvironments": [
            {
                "name": "Clinic",
                "protocol": "http",
                "port": 2899,
                "database": {
                    "url": "mongodb://mdocrolloutusr:CX2gpr6lW8mm3z6GeuzN@localhost:27017/mdocrollout_base"
                }
            }
        ]
    },
    "file": {
        "balancingEnvironment": {
            "name": "File",
            "protocol": "http",
            "host": "localhost",
            "port": 2900
        },
        "deploymentEnvironments": [
            {
                "name": "File",
                "protocol": "http",
                "port": 2900,
                "database": {
                    "url": "mongodb://mdocrolloutusr:CX2gpr6lW8mm3z6GeuzN@localhost:27017/mdocrollout_base"
                }
            }
        ]
    },
    "reservations": {
        "balancingEnvironment": {
            "name": "Reservations",
            "protocol": "http",
            "host": "localhost",
            "port": 2901
        },
        "deploymentEnvironments": [
            {
                "name": "Reservations",
                "protocol": "http",
                "port": 2901,
                "database": {
                    "url": "mongodb://mdocrolloutusr:CX2gpr6lW8mm3z6GeuzN@localhost:27017/mdocrollout_base"
                }
            }
        ]
    },
    "w2e": {
        "balancingEnvironment": {
            "name": "w2e",
            "protocol": "http",
            "host": "localhost",
            "port": 2903
        },
        "deploymentEnvironments": [
            {
                "name": "w2e",
                "protocol": "http",
                "port": 2903,
                "database": {
                    "url": "mongodb://mdocrolloutusr:CX2gpr6lW8mm3z6GeuzN@localhost:27017/mdocrollout_base"
                }
            }
        ]
    },
    "mail": {
        "name": "Mail",
        "protocol": "smtps",
        "host": "smtp.gmail.com",
        "port": 465,
        "user": "naturevtadev@gmail.com",
        "password": "koliko123koliko",
        "email": "naturevtadev@gmail.com",
        "attachmentLimit": 20971520
    },
    "mailFax": {
        "name": "Mail",
        "protocol": "smtps",
        "host": "mail.de2.hostedoffice.ag",
        "port": 587,
        "user": "at@ksquadrat.de",
        "password": "U4rNRSM!Tej5",
        "email": "at@ksquadrat.de",
        "attachmentLimit": 20971520
    },
    "fileRedirector": {
        "balancingEnvironment": {
            "name": "Rest",
            "protocol": "https",
            "host": "localhost",
            "port": 3903
        },
        "deploymentEnvironments": [
            {
                "name": "Rest-0",
                "protocol": "http",
                "host": "localhost",
                "port": 3903
            }
        ]
    }
}