<svg xmlns="http://www.w3.org/2000/svg" width="16" height="16" fill="none" viewBox="0 0 16 16">
    <path fill="#222" fill-rule="evenodd" d="M14.695 2.724h-1.42v-1.42c0-.123-.074-.234-.188-.28-.114-.048-.244-.022-.332.065l-1.313 1.314c-1.085-.682-2.332-1.04-3.623-1.04C4.059 1.361 1 4.42 1 8.18S4.059 15 7.819 15s6.819-3.059 6.819-6.819c0-1.291-.36-2.538-1.041-3.623l1.314-1.314c.087-.087.113-.218.066-.332-.047-.114-.158-.188-.282-.188zm-.666 5.457c0 3.424-2.786 6.21-6.21 6.21s-6.21-2.786-6.21-6.21 2.785-6.21 6.21-6.21c1.129 0 2.22.302 3.179.875l-.881.881c-.057.057-.09.135-.09.215v.655c-.66-.407-1.424-.63-2.208-.63-2.324 0-4.214 1.89-4.214 4.214 0 2.323 1.89 4.213 4.214 4.213 2.323 0 4.212-1.89 4.212-4.213 0-.784-.222-1.55-.63-2.21h.656c.08 0 .158-.032.215-.09l.881-.88c.573.96.876 2.051.876 3.18zm-5.31-1.33l1.31-1.31v-.204c-.63-.49-1.408-.76-2.21-.76-1.987 0-3.604 1.616-3.604 3.604s1.617 3.605 3.604 3.605c1.988 0 3.604-1.617 3.604-3.605 0-.802-.27-1.58-.76-2.21h-.204l-1.31 1.31c.175.256.278.566.278.9 0 .886-.722 1.607-1.608 1.607-.886 0-1.607-.72-1.607-1.607 0-.886.72-1.608 1.607-1.608.334 0 .643.103.9.277zm.098 1.33c0 .55-.448.999-.998.999-.551 0-.999-.448-.999-.999 0-.55.448-.999.999-.999.164 0 .32.041.456.112l-.672.672c-.119.119-.119.311 0 .43.06.06.137.09.215.09.078 0 .156-.03.216-.09l.672-.672c.07.137.111.292.111.457zm4.173-3.878l.003-.002.968-.968h-.99c-.168 0-.304-.137-.304-.305V2.04l-.966.966-.012.012-1.052 1.052v1.293h1.294l1.054-1.053.005-.006z" clip-rule="evenodd"/>
</svg>
