<svg xmlns="http://www.w3.org/2000/svg" width="16" height="16" fill="none" viewBox="0 0 16 16">
    <path fill="#222" d="M14.417 14H1.583c-.154 0-.303-.054-.412-.15-.11-.097-.171-.227-.171-.364V2.514c0-.137.061-.267.17-.364.11-.096.259-.15.413-.15h12.834c.154 0 .303.054.412.15.11.097.171.227.171.364v10.972c0 .137-.062.267-.17.364-.11.096-.259.15-.413.15zm-12.834-.497h12.834V2.546H1.583v10.957z"/>
    <path fill="#000" d="M3.313 12h9.374c.173 0 .313-.112.313-.25s-.14-.25-.313-.25H3.626V4.25c0-.138-.14-.25-.313-.25C3.14 4 3 4.112 3 4.25v7.5c0 .138.14.25.313.25z"/>
    <path fill="#000" d="M5.81 9.98c.097 0 .191-.035.253-.102l1.955-2.126 1.668.977c.138.081.334.057.436-.053l2.192-2.385c.102-.111.072-.267-.066-.35-.14-.081-.335-.057-.437.054L9.804 8.178l-1.668-.977c-.139-.082-.334-.058-.436.053L5.56 9.582c-.103.11-.073.267.066.349.055.033.12.049.184.049z"/>
</svg>
