<svg xmlns="http://www.w3.org/2000/svg" width="16" height="16" fill="none" viewBox="0 0 16 16">
    <path fill="#222" fill-rule="evenodd" d="M4 1.5c0-.276.224-.5.5-.5s.5.224.5.5V2h6v-.5c0-.276.224-.5.5-.5s.5.224.5.5V2h1.5c.133 0 .26.054.354.15.093.097.146.227.146.364v10.972c0 .137-.053.267-.146.364-.094.096-.221.15-.354.15h-11c-.133 0-.26-.054-.354-.15-.093-.097-.146-.227-.146-.364V2.514c0-.137.053-.267.146-.364.094-.096.221-.15.354-.15H4v-.5zm7.002 1.046c.023.254.237.454.498.454.26 0 .475-.2.498-.454H13.5v10.957h-11V2.546h1.502C4.025 2.8 4.24 3 4.5 3c.26 0 .475-.2.498-.454h6.004zM11.2 8c0 1.767-1.433 3.2-3.2 3.2-1.767 0-3.2-1.433-3.2-3.2 0-1.767 1.433-3.2 3.2-3.2 1.767 0 3.2 1.433 3.2 3.2zm.8 0c0 2.21-1.79 4-4 4s-4-1.79-4-4 1.79-4 4-4 4 1.79 4 4zM7.5 6c-.276 0-.5.224-.5.5v2c0 .276.224.5.5.5h2c.276 0 .5-.224.5-.5S9.776 8 9.5 8H8V6.5c0-.276-.224-.5-.5-.5z" clip-rule="evenodd"/>
</svg>
